lab4/testbench.vcd
$date
	Sat Aug 12 13:58:48 2023
$end
$version
	Icarus Verilog
$end
$timescale
	1ps
$end
$scope module Testbench $end
$var parameter 6 ! FUNC_ADD $end
$var parameter 6 " FUNC_AND $end
$var parameter 6 # FUNC_NOR $end
$var parameter 6 $ FUNC_OR $end
$var parameter 6 % FUNC_SLL $end
$var parameter 6 & FUNC_SLLV $end
$var parameter 6 ' FUNC_SLT $end
$var parameter 6 ( FUNC_SRL $end
$var parameter 6 ) FUNC_SRLV $end
$var parameter 6 * FUNC_SUB $end
$var parameter 6 + OP_ADDI $end
$var parameter 6 , OP_BEQ $end
$var parameter 6 - OP_LW $end
$var parameter 6 . OP_R_TYPE $end
$var parameter 6 / OP_SW $end
$var reg 1 0 CLK $end
$var reg 80 1 EX_MEM_instr_name [79:0] $end
$var reg 80 2 MEM_WB_instr_name [79:0] $end
$var reg 1 3 RST $end
$var reg 32 4 addr [31:0] $end
$var reg 32 5 data [31:0] $end
$var reg 32 6 instruction [31:0] $end
$var reg 32 7 pc [31:0] $end
$var reg 5 8 rd [4:0] $end
$var reg 5 9 rs [4:0] $end
$var reg 5 : rt [4:0] $end
$var integer 32 ; count [31:0] $end
$var integer 32 < ex_mem_error [31:0] $end
$var integer 32 = finishing [31:0] $end
$var integer 32 > i [31:0] $end
$var integer 32 ? mem_error [31:0] $end
$var integer 32 @ mem_wb_error [31:0] $end
$var integer 32 A reg_error [31:0] $end
$var integer 32 B score [31:0] $end
$var integer 32 C testing [31:0] $end
$var integer 32 D total_score [31:0] $end
$var integer 32 E wa [31:0] $end
$scope begin gen_alu[0] $end
$var parameter 2 F j $end
$upscope $end
$scope begin gen_alu[1] $end
$var parameter 2 G j $end
$upscope $end
$scope begin gen_alu[2] $end
$var parameter 3 H j $end
$upscope $end
$scope begin gen_alu[3] $end
$var parameter 3 I j $end
$upscope $end
$scope begin gen_alu[4] $end
$var parameter 4 J j $end
$upscope $end
$scope begin gen_alu[5] $end
$var parameter 4 K j $end
$upscope $end
$scope begin gen_alu[6] $end
$var parameter 4 L j $end
$upscope $end
$scope begin gen_alu[7] $end
$var parameter 4 M j $end
$upscope $end
$scope begin gen_alu[8] $end
$var parameter 5 N j $end
$upscope $end
$scope begin gen_alu[9] $end
$var parameter 5 O j $end
$upscope $end
$scope begin gen_alu[10] $end
$var parameter 5 P j $end
$upscope $end
$scope begin gen_alu[11] $end
$var parameter 5 Q j $end
$upscope $end
$scope begin gen_alu[12] $end
$var parameter 5 R j $end
$upscope $end
$scope begin gen_alu[13] $end
$var parameter 5 S j $end
$upscope $end
$scope begin gen_alu[14] $end
$var parameter 5 T j $end
$upscope $end
$scope begin gen_alu[15] $end
$var parameter 5 U j $end
$upscope $end
$scope begin gen_alu[16] $end
$var parameter 6 V j $end
$upscope $end
$scope begin gen_alu[17] $end
$var parameter 6 W j $end
$upscope $end
$scope begin gen_alu[18] $end
$var parameter 6 X j $end
$upscope $end
$scope begin gen_alu[19] $end
$var parameter 6 Y j $end
$upscope $end
$scope begin gen_alu[20] $end
$var parameter 6 Z j $end
$upscope $end
$scope begin gen_alu[21] $end
$var parameter 6 [ j $end
$upscope $end
$scope begin gen_alu[22] $end
$var parameter 6 \ j $end
$upscope $end
$scope begin gen_alu[23] $end
$var parameter 6 ] j $end
$upscope $end
$scope begin gen_alu[24] $end
$var parameter 6 ^ j $end
$upscope $end
$scope begin gen_alu[25] $end
$var parameter 6 _ j $end
$upscope $end
$scope begin gen_alu[26] $end
$var parameter 6 ` j $end
$upscope $end
$scope begin gen_alu[27] $end
$var parameter 6 a j $end
$upscope $end
$scope begin gen_alu[28] $end
$var parameter 6 b j $end
$upscope $end
$scope begin gen_alu[29] $end
$var parameter 6 c j $end
$upscope $end
$scope begin gen_alu[30] $end
$var parameter 6 d j $end
$upscope $end
$scope begin gen_alu[31] $end
$var parameter 6 e j $end
$upscope $end
$scope module cpu $end
$var wire 1 0 clk_i $end
$var wire 1 3 rst_n $end
$var wire 32 f zeroFilled [31:0] $end
$var wire 1 g zero $end
$var wire 32 h writeData [31:0] $end
$var wire 32 i temperAddress [31:0] $end
$var wire 32 j signAlreadyExtend [31:0] $end
$var wire 1 k shifhterSource $end
$var wire 1 l rt $end
$var wire 32 m readData2 [31:0] $end
$var wire 32 n pc_counter_o [31:0] $end
$var wire 32 o pc_counter_i [31:0] $end
$var wire 1 p overflow $end
$var wire 32 q outputData [31:0] $end
$var wire 1 r leftRight $end
$var wire 32 s jumpShift [31:0] $end
$var wire 1 t jal $end
$var wire 32 u instruction_o [31:0] $end
$var wire 32 v instruction [31:0] $end
$var wire 32 w finalShift [31:0] $end
$var wire 1 x equalOrNotEqual $end
$var wire 32 y branchTarget [31:0] $end
$var wire 32 z branchAddress [31:0] $end
$var wire 32 { alreadyShift2 [31:0] $end
$var wire 32 | alreadyShift [31:0] $end
$var wire 32 } addressShift [31:0] $end
$var wire 5 ~ WriteRegister3 [4:0] $end
$var wire 5 !" WriteRegister2 [4:0] $end
$var wire 5 "" WriteRegister [4:0] $end
$var wire 32 #" WriteData2 [31:0] $end
$var wire 1 $" RestoreLink $end
$var wire 1 %" RegWrite $end
$var wire 1 &" RegDst $end
$var wire 1 '" RTsource $end
$var wire 32 (" RTdata [31:0] $end
$var wire 5 )" RTaddress [4:0] $end
$var wire 32 *" RSdata [31:0] $end
$var wire 1 +" PC_source $end
$var wire 32 ," PC_address [31:0] $end
$var wire 1 -" MemtoReg $end
$var wire 1 ." MemWrite $end
$var wire 1 /" MemRead $end
$var wire 5 0" MEMWB_writeback [4:0] $end
$var wire 32 1" MEMWB_outputdata [31:0] $end
$var wire 32 2" MEMWB_address [31:0] $end
$var wire 1 3" MEMWB_RegWrite $end
$var wire 1 4" MEMWB_MemtoReg $end
$var wire 1 5" Jump $end
$var wire 32 6" IDEX_signAlreadyExtend [31:0] $end
$var wire 6 7" IDEX_func [5:0] $end
$var wire 1 8" IDEX_RegWrite $end
$var wire 1 9" IDEX_RegDst $end
$var wire 32 :" IDEX_RTdata [31:0] $end
$var wire 5 ;" IDEX_RT [4:0] $end
$var wire 32 <" IDEX_RSdata [31:0] $end
$var wire 5 =" IDEX_RD [4:0] $end
$var wire 1 >" IDEX_MemtoReg $end
$var wire 1 ?" IDEX_MemWrite $end
$var wire 1 @" IDEX_MemRead $end
$var wire 1 A" IDEX_ALUSrc $end
$var wire 3 B" IDEX_ALUOp [2:0] $end
$var wire 2 C" FURslt [1:0] $end
$var wire 5 D" EXMEM_writeback [4:0] $end
$var wire 32 E" EXMEM_address [31:0] $end
$var wire 1 F" EXMEM_RegWrite $end
$var wire 32 G" EXMEM_RTdata [31:0] $end
$var wire 1 H" EXMEM_MemtoReg $end
$var wire 1 I" EXMEM_MemWrite $end
$var wire 1 J" EXMEM_MemRead $end
$var wire 1 K" BranchType $end
$var wire 1 L" Branch $end
$var wire 32 M" Address [31:0] $end
$var wire 32 N" ALU_Result [31:0] $end
$var wire 4 O" ALU_Operation [3:0] $end
$var wire 1 P" ALUSrc $end
$var wire 3 Q" ALUOp [2:0] $end
$scope module AC $end
$var wire 3 R" ALUOp_i [2:0] $end
$var wire 6 S" funct_i [5:0] $end
$var parameter 6 T" ADD $end
$var parameter 6 U" AND $end
$var parameter 6 V" JR $end
$var parameter 6 W" NOR $end
$var parameter 6 X" OR $end
$var parameter 6 Y" SLL $end
$var parameter 6 Z" SLLV $end
$var parameter 6 [" SLT $end
$var parameter 6 \" SRL $end
$var parameter 6 ]" SRLV $end
$var parameter 6 ^" SUB $end
$var reg 4 _" ALU_operation_o [3:0] $end
$var reg 2 `" FURslt_o [1:0] $end
$var reg 1 +" PC_source_o $end
$var reg 1 r leftRight_o $end
$var reg 1 k shifhterSource_o $end
$upscope $end
$scope module ALU $end
$var wire 4 a" ALU_operation_i [3:0] $end
$var wire 1 p overflow $end
$var wire 1 g zero $end
$var wire 32 b" aluSrc2 [31:0] $end
$var wire 32 c" aluSrc1 [31:0] $end
$var reg 32 d" result [31:0] $end
$upscope $end
$scope module ALU_Src $end
$var wire 1 A" select_i $end
$var wire 1 e" temp $end
$var wire 32 f" data1_i [31:0] $end
$var wire 32 g" data0_i [31:0] $end
$var parameter 32 h" size $end
$var reg 32 i" data_o [31:0] $end
$upscope $end
$scope module Adder1 $end
$var wire 32 j" src2_i [31:0] $end
$var wire 32 k" sum_o [31:0] $end
$var wire 32 l" src1_i [31:0] $end
$upscope $end
$scope module Adder2 $end
$var wire 32 m" src1_i [31:0] $end
$var wire 32 n" sum_o [31:0] $end
$var wire 32 o" src2_i [31:0] $end
$upscope $end
$scope module DM $end
$var wire 1 J" MemRead_i $end
$var wire 1 I" MemWrite_i $end
$var wire 1 0 clk_i $end
$var wire 32 p" data_i [31:0] $end
$var wire 32 q" addr_i [31:0] $end
$var reg 32 r" data_o [31:0] $end
$var integer 32 s" i [31:0] $end
$upscope $end
$scope module Decoder $end
$var wire 6 t" instr_op_i [5:0] $end
$var parameter 6 u" RType $end
$var parameter 6 v" addi $end
$var parameter 6 w" beq $end
$var parameter 6 x" bgez $end
$var parameter 6 y" blt $end
$var parameter 6 z" bne $end
$var parameter 6 {" bnez $end
$var parameter 6 |" jal $end
$var parameter 6 }" jump $end
$var parameter 6 ~" lw $end
$var parameter 6 !# sw $end
$var reg 3 "# ALUOp_o [2:0] $end
$var reg 1 P" ALUSrc_o $end
$var reg 1 K" BranchType_o $end
$var reg 1 L" Branch_o $end
$var reg 1 5" Jump_o $end
$var reg 1 /" MemRead_o $end
$var reg 1 ." MemWrite_o $end
$var reg 1 -" MemtoReg_o $end
$var reg 1 '" RTsource_o $end
$var reg 1 &" RegDst_o $end
$var reg 1 %" RegWrite_o $end
$var reg 1 $" RestoreLink_o $end
$var reg 1 t jal_o $end
$var reg 1 l rt_o $end
$upscope $end
$scope module EXMEM_Address $end
$var wire 1 0 clk_i $end
$var wire 1 3 rst_n $end
$var wire 32 ## data_i [31:0] $end
$var parameter 32 $# size $end
$var reg 32 %# data_o [31:0] $end
$upscope $end
$scope module EXMEM_RTData $end
$var wire 1 0 clk_i $end
$var wire 1 3 rst_n $end
$var wire 32 &# data_i [31:0] $end
$var parameter 32 '# size $end
$var reg 32 (# data_o [31:0] $end
$upscope $end
$scope module EXMEM_Writeback $end
$var wire 1 0 clk_i $end
$var wire 1 3 rst_n $end
$var wire 5 )# data_i [4:0] $end
$var parameter 32 *# size $end
$var reg 5 +# data_o [4:0] $end
$upscope $end
$scope module IDEX_RDReg $end
$var wire 1 0 clk_i $end
$var wire 5 ,# data_i [4:0] $end
$var wire 1 3 rst_n $end
$var parameter 32 -# size $end
$var reg 5 .# data_o [4:0] $end
$upscope $end
$scope module IDEX_RTReg $end
$var wire 1 0 clk_i $end
$var wire 5 /# data_i [4:0] $end
$var wire 1 3 rst_n $end
$var parameter 32 0# size $end
$var reg 5 1# data_o [4:0] $end
$upscope $end
$scope module IDEX_decoder $end
$var wire 1 0 clk_i $end
$var wire 9 2# data_i [8:0] $end
$var wire 1 3 rst_n $end
$var parameter 32 3# size $end
$var reg 9 4# data_o [8:0] $end
$upscope $end
$scope module IDEX_extend $end
$var wire 1 0 clk_i $end
$var wire 1 3 rst_n $end
$var wire 32 5# data_i [31:0] $end
$var parameter 32 6# size $end
$var reg 32 7# data_o [31:0] $end
$upscope $end
$scope module IDEX_functionCode $end
$var wire 1 0 clk_i $end
$var wire 6 8# data_i [5:0] $end
$var wire 1 3 rst_n $end
$var parameter 32 9# size $end
$var reg 6 :# data_o [5:0] $end
$upscope $end
$scope module IDEX_rs $end
$var wire 1 0 clk_i $end
$var wire 1 3 rst_n $end
$var wire 32 ;# data_i [31:0] $end
$var parameter 32 <# size $end
$var reg 32 =# data_o [31:0] $end
$upscope $end
$scope module IDEX_rt $end
$var wire 1 0 clk_i $end
$var wire 1 3 rst_n $end
$var wire 32 ># data_i [31:0] $end
$var parameter 32 ?# size $end
$var reg 32 @# data_o [31:0] $end
$upscope $end
$scope module IFID_instruction $end
$var wire 1 0 clk_i $end
$var wire 1 3 rst_n $end
$var wire 32 A# data_i [31:0] $end
$var parameter 32 B# size $end
$var reg 32 C# data_o [31:0] $end
$upscope $end
$scope module IM $end
$var wire 32 D# pc_addr_i [31:0] $end
$var reg 32 E# instr_o [31:0] $end
$var integer 32 F# i [31:0] $end
$upscope $end
$scope module MEMWB_Address $end
$var wire 1 0 clk_i $end
$var wire 32 G# data_i [31:0] $end
$var wire 1 3 rst_n $end
$var parameter 32 H# size $end
$var reg 32 I# data_o [31:0] $end
$upscope $end
$scope module MEMWB_Writeback $end
$var wire 1 0 clk_i $end
$var wire 5 J# data_i [4:0] $end
$var wire 1 3 rst_n $end
$var parameter 32 K# size $end
$var reg 5 L# data_o [4:0] $end
$upscope $end
$scope module MEMWB_outputData $end
$var wire 1 0 clk_i $end
$var wire 32 M# data_i [31:0] $end
$var wire 1 3 rst_n $end
$var parameter 32 N# size $end
$var reg 32 O# data_o [31:0] $end
$upscope $end
$scope module Mux_JALWriteData $end
$var wire 32 P# data1_i [31:0] $end
$var wire 1 $" select_i $end
$var wire 1 Q# temp $end
$var wire 32 R# data0_i [31:0] $end
$var parameter 32 S# size $end
$var reg 32 T# data_o [31:0] $end
$upscope $end
$scope module Mux_JRaddress $end
$var wire 1 +" select_i $end
$var wire 1 U# temp $end
$var wire 32 V# data1_i [31:0] $end
$var wire 32 W# data0_i [31:0] $end
$var parameter 32 X# size $end
$var reg 32 Y# data_o [31:0] $end
$upscope $end
$scope module Mux_Write $end
$var wire 32 Z# data0_i [31:0] $end
$var wire 32 [# data1_i [31:0] $end
$var wire 1 4" select_i $end
$var wire 1 \# temp $end
$var parameter 32 ]# size $end
$var reg 32 ^# data_o [31:0] $end
$upscope $end
$scope module Mux_Write_Reg $end
$var wire 5 _# data0_i [4:0] $end
$var wire 5 `# data1_i [4:0] $end
$var wire 1 9" select_i $end
$var wire 1 a# temp $end
$var parameter 32 b# size $end
$var reg 5 c# data_o [4:0] $end
$upscope $end
$scope module Mux_Write_RegJAL $end
$var wire 5 d# data0_i [4:0] $end
$var wire 5 e# data1_i [4:0] $end
$var wire 1 $" select_i $end
$var wire 1 f# temp $end
$var parameter 32 g# size $end
$var reg 5 h# data_o [4:0] $end
$upscope $end
$scope module Mux_Write_RegJR $end
$var wire 5 i# data0_i [4:0] $end
$var wire 5 j# data1_i [4:0] $end
$var wire 1 +" select_i $end
$var wire 1 k# temp $end
$var parameter 32 l# size $end
$var reg 5 m# data_o [4:0] $end
$upscope $end
$scope module Mux_address $end
$var wire 32 n# data1_i [31:0] $end
$var wire 1 5" select_i $end
$var wire 1 o# temp $end
$var wire 32 p# data0_i [31:0] $end
$var parameter 32 q# size $end
$var reg 32 r# data_o [31:0] $end
$upscope $end
$scope module Mux_branch $end
$var wire 32 s# data0_i [31:0] $end
$var wire 32 t# data1_i [31:0] $end
$var wire 1 u# select_i $end
$var wire 1 v# temp $end
$var parameter 32 w# size $end
$var reg 32 x# data_o [31:0] $end
$upscope $end
$scope module Mux_read_RT $end
$var wire 5 y# data0_i [4:0] $end
$var wire 5 z# data1_i [4:0] $end
$var wire 1 '" select_i $end
$var wire 1 {# temp $end
$var parameter 32 |# size $end
$var reg 5 }# data_o [4:0] $end
$upscope $end
$scope module PC $end
$var wire 1 0 clk_i $end
$var wire 32 ~# pc_in_i [31:0] $end
$var wire 1 3 rst_n $end
$var reg 32 !$ pc_out_o [31:0] $end
$upscope $end
$scope module Pipeline_EXMEM $end
$var wire 1 0 clk_i $end
$var wire 4 "$ data_i [3:0] $end
$var wire 1 3 rst_n $end
$var parameter 32 #$ size $end
$var reg 4 $$ data_o [3:0] $end
$upscope $end
$scope module Pipeline_MEMWB $end
$var wire 1 0 clk_i $end
$var wire 2 %$ data_i [1:0] $end
$var wire 1 3 rst_n $end
$var parameter 32 &$ size $end
$var reg 2 '$ data_o [1:0] $end
$upscope $end
$scope module RDdata_Source $end
$var wire 32 ($ data0_i [31:0] $end
$var wire 32 )$ data2_i [31:0] $end
$var wire 2 *$ select_i [1:0] $end
$var wire 32 +$ data1_i [31:0] $end
$var parameter 32 ,$ size $end
$var reg 32 -$ data_o [31:0] $end
$var integer 32 .$ select [31:0] $end
$upscope $end
$scope module RF $end
$var wire 5 /$ RDaddr_i [4:0] $end
$var wire 32 0$ RDdata_i [31:0] $end
$var wire 5 1$ RSaddr_i [4:0] $end
$var wire 32 2$ RSdata_o [31:0] $end
$var wire 5 3$ RTaddr_i [4:0] $end
$var wire 32 4$ RTdata_o [31:0] $end
$var wire 1 3" RegWrite_i $end
$var wire 1 0 clk_i $end
$var wire 1 3 rst_n $end
$upscope $end
$scope module SE $end
$var wire 16 5$ data_i [15:0] $end
$var reg 32 6$ data_o [31:0] $end
$var integer 32 7$ i [31:0] $end
$upscope $end
$scope module ZF $end
$var wire 16 8$ data_i [15:0] $end
$var reg 32 9$ data_o [31:0] $end
$var integer 32 :$ i [31:0] $end
$upscope $end
$scope module branch $end
$var wire 1 g data0_i $end
$var wire 1 ;$ data1_i $end
$var wire 1 K" select_i $end
$var wire 1 <$ temp $end
$var parameter 32 =$ size $end
$var reg 1 x data_o $end
$upscope $end
$scope module branchShifter $end
$var wire 1 >$ leftRight $end
$var wire 32 ?$ result [31:0] $end
$var wire 32 @$ sftSrc [31:0] $end
$var wire 5 A$ shamt [4:0] $end
$upscope $end
$scope module jumpShifter $end
$var wire 1 B$ leftRight $end
$var wire 32 C$ result [31:0] $end
$var wire 32 D$ sftSrc [31:0] $end
$var wire 5 E$ shamt [4:0] $end
$upscope $end
$scope module rdShift $end
$var wire 1 r leftRight $end
$var wire 32 F$ sftSrc [31:0] $end
$var wire 5 G$ shamt [4:0] $end
$var wire 32 H$ result [31:0] $end
$upscope $end
$scope module shifhterSource $end
$var wire 32 I$ data1_i [31:0] $end
$var wire 1 k select_i $end
$var wire 1 J$ temp $end
$var wire 32 K$ data0_i [31:0] $end
$var parameter 32 L$ size $end
$var reg 32 M$ data_o [31:0] $end
$upscope $end
$scope module shifter $end
$var wire 1 r leftRight $end
$var wire 32 N$ sftSrc [31:0] $end
$var wire 5 O$ shamt [4:0] $end
$var wire 32 P$ result [31:0] $end
$upscope $end
$upscope $end
$upscope $end
$enddefinitions $end
$comment Show the parameter values. $end
$dumpall
b100000 L$
b1 =$
b100000 ,$
b10 &$
b100 #$
b101 |#
b100000 w#
b100000 q#
b101 l#
b101 g#
b101 b#
b100000 ]#
b100000 X#
b100000 S#
b100000 N#
b101 K#
b100000 H#
b100000 B#
b100000 ?#
b100000 <#
b110 9#
b100000 6#
b1001 3#
b101 0#
b101 -#
b101 *#
b100000 '#
b100000 $#
b101000 !#
b11000 ~"
b1100 }"
b1111 |"
b11101 {"
b11010 z"
b11100 y"
b11110 x"
b11001 w"
b10011 v"
b0 u"
b100000 h"
b10011 ^"
b101000 ]"
b100010 \"
b10100 ["
b11000 Z"
b10010 Y"
b101111 X"
b10000 W"
b1 V"
b11111 U"
b100011 T"
b11111 e
b11110 d
b11101 c
b11100 b
b11011 a
b11010 `
b11001 _
b11000 ^
b10111 ]
b10110 \
b10101 [
b10100 Z
b10011 Y
b10010 X
b10001 W
b10000 V
b1111 U
b1110 T
b1101 S
b1100 R
b1011 Q
b1010 P
b1001 O
b1000 N
b111 M
b110 L
b101 K
b100 J
b11 I
b10 H
b1 G
b0 F
b101000 /
b0 .
b11000 -
b11001 ,
b10011 +
b10011 *
b101000 )
b100010 (
b10100 '
b11000 &
b10010 %
b101111 $
b10000 #
b11111 "
b100011 !
$end
#0
$dumpvars
bx P$
bx O$
bx N$
bx M$
bx K$
xJ$
bx I$
bx H$
bx G$
bx F$
b10 E$
b0xxxxxxxxxxxxxxxxxxxxxxxxxx D$
b0xxxxxxxxxxxxxxxxxxxxxxxxxx00 C$
0B$
b10 A$
bx @$
bx00 ?$
0>$
x<$
x;$
bx :$
bx 9$
bx 8$
bx 7$
bx 6$
bx 5$
b0 4$
b0 3$
bx 2$
bx 1$
bx 0$
bx /$
bx .$
bx -$
bx +$
bx *$
bx )$
bx ($
bx '$
bx %$
bx $$
bx "$
bx !$
bx ~#
b0 }#
x{#
b0 z#
bx y#
bx x#
xv#
xu#
bx t#
bx s#
bx00 r#
bx p#
xo#
bx00 n#
bx m#
xk#
bx j#
b11111 i#
b11111 h#
xf#
b11111 e#
bx d#
bx c#
xa#
bx `#
bx _#
bx ^#
x\#
bx [#
bx Z#
bx Y#
bx00 W#
bx V#
xU#
bx T#
bx R#
xQ#
bx P#
bx O#
bx M#
bx L#
bx J#
bx I#
bx G#
b100000 F#
bx E#
bx D#
bx C#
bx A#
bx @#
b0 >#
bx =#
bx ;#
bx :#
bx 8#
bx 7#
bx 5#
bx 4#
bx 2#
bx 1#
bx /#
bx .#
bx ,#
bx +#
bx )#
bx (#
bx &#
bx %#
bx ##
bx "#
bx t"
b10000000 s"
bx r"
bx q"
bx p"
bx00 o"
bx n"
bx m"
bx l"
bx k"
b100 j"
bx i"
bx g"
bx f"
xe"
bx d"
bx c"
bx b"
bx a"
bx `"
bx _"
bx S"
bx R"
bx Q"
xP"
bx O"
bx N"
bx M"
xL"
xK"
xJ"
xI"
xH"
bx G"
xF"
bx E"
bx D"
bx C"
bx B"
xA"
x@"
x?"
x>"
bx ="
bx <"
bx ;"
bx :"
x9"
x8"
bx 7"
bx 6"
x5"
x4"
x3"
bx 2"
bx 1"
bx 0"
x/"
x."
x-"
bx ,"
x+"
bx *"
b0 )"
b0 ("
x'"
x&"
x%"
x$"
bx #"
bx ""
b11111 !"
bx ~
bx00 }
bx |
bx {
bx z
bx y
xx
bx w
bx v
bx u
xt
b0xxxxxxxxxxxxxxxxxxxxxxxxxx00 s
xr
bx q
xp
bx o
bx n
bx m
xl
xk
bx j
bx00 i
bx h
xg
bx f
b0 E
b0 D
b1 C
b0 B
bx A
bx @
bx ?
b10000000 >
b0 =
bx <
b0 ;
bx :
bx 9
bx 8
bx 7
b0 6
bx 5
bx 4
03
bx 2
bx 1
00
$end
#5000
0;$
1x
1g
0v#
0u#
b0 !"
b0 h#
b0 i#
b0 {
b0 H$
b0 I$
0p
b0 f
b0 9$
b10000 :$
b0 j
b0 5#
b0 6$
b10000 7$
1%"
b10 Q"
b10 "#
0P"
1&"
0o#
05"
0L"
0<$
0K"
0/"
0."
b110100000 2#
0-"
0t
0l
0Q#
0f#
0$"
0{#
0'"
b0 G$
b0 w
b0 +$
b0 M$
b0 |
b0 K$
b0 P$
b0 O$
b0 /#
b0 ,#
b0 8#
b0 8$
b0 5$
b0 t"
b0 *"
b0 ;#
b0 2$
b0 1$
b0 y#
b0 ~
b0 m#
b0 j#
b0 s
b0 C$
b0 D$
b100 i
b100 W#
b100 r#
b0 n#
b0 #"
b0 T#
b0 0$
b100 z
b100 p#
b100 x#
b1001100000000010000000000011111 u
b1001100000000010000000000011111 A#
b1001100000000010000000000011111 E#
0>"
0@"
0?"
0e"
0A"
b0 B"
b0 R"
b0 "$
08"
0a#
09"
b100 o
b100 Y#
b100 ~#
b0 M"
b0 ##
b0 V#
b0 -$
b0 N"
b0 d"
b0 ($
b0 m
b0 b"
b0 i"
b0 F$
b0 N$
b0 .$
b10 O"
b10 _"
b10 a"
b0 C"
b0 `"
b0 *$
xr
xJ$
xk
0U#
0k#
0+"
b0 ""
b0 )#
b0 c#
b0 d#
0H"
0J"
0I"
b0 %$
0F"
0\#
04"
03"
b0 h
b0 R#
b0 ^#
b0 v
b0 C#
b100 y
b100 n"
b100 t#
b100 n
b100 k"
b100 m"
b100 P#
b100 s#
b0 ,"
b0 l"
b0 D#
b0 !$
b0 D"
b0 +#
b0 J#
b0 0"
b0 L#
b0 /$
b0 4#
b0 <"
b0 c"
b0 =#
b0 :"
b0 g"
b0 &#
b0 @#
b0 }
b0 o"
b0 ?$
b0 6"
b0 f"
b0 7#
b0 )$
b0 @$
b0 7"
b0 S"
b0 :#
b0 ="
b0 .#
b0 _#
b0 ;"
b0 1#
b0 `#
b0 $$
b0 E"
b0 q"
b0 %#
b0 G#
b0 G"
b0 p"
b0 (#
b0 '$
b0 1"
b0 O#
b0 [#
b0 2"
b0 I#
b0 Z#
10
#10000
b0 ?
b0 A
b0 <
b0 @
b0 8
b0 :
b0 9
b1001100000000010000000000011111 6
b100 7
13
00
#15000
b0xx .$
bx O"
bx _"
bx a"
bx C"
bx `"
bx *$
b11111 f
b11111 9$
b10000 :$
b11111 j
b11111 5#
b11111 6$
b10000 7$
b11 Q"
b11 "#
1P"
b10111000 2#
0&"
b1000000000001111100 n#
b10 B"
b10 R"
b1000 "$
18"
1a#
19"
b1001100000000100000000000010001 u
b1001100000000100000000000010001 A#
b1001100000000100000000000010001 E#
b1 ,#
b11111 8#
b11111 8$
b11111 5$
b10011 t"
b1 )"
b1 }#
b1 3$
b1 y#
b1000000000001111100 s
b1000000000001111100 C$
b10000000000011111 D$
bx 1"
bx O#
bx [#
b110100000 4#
b1000 y
b1000 n"
b1000 t#
b1000 o
b1000 Y#
b1000 ~#
b1000 i
b1000 W#
b1000 r#
b1000 z
b1000 p#
b1000 x#
b1000 n
b1000 k"
b1000 m"
b1000 P#
b1000 s#
b100 ,"
b100 l"
b100 D#
b100 !$
b1001100000000010000000000011111 v
b1001100000000010000000000011111 C#
10
#20000
b1000 7
b1001100000000100000000000010001 6
b1 ;
b100000 >
00
#25000
1;$
0x
0g
b11111 w
b11111 +$
b11111 M$
b11111 {
b11111 H$
b11111 I$
b11111 |
b11111 K$
b11111 P$
b11111 M"
b11111 ##
b11111 V#
b11111 -$
b11111 N"
b11111 d"
b11111 ($
b10001 f
b10001 9$
b10000 :$
b10001 j
b10001 5#
b10001 6$
b10000 7$
b10000000000001000100 n#
b11111 m
b11111 b"
b11111 i"
b11111 F$
b11111 N$
b1 ~
b1 m#
b1 !"
b1 h#
b1 i#
b1 ""
b1 )#
b1 c#
b1 d#
b10 ,#
b10001 8#
b10001 8$
b10001 5$
b10 )"
b10 }#
b10 3$
b10 y#
b10000000000001000100 s
b10000000000001000100 C$
b100000000000010001 D$
b1001100000001000000000000001110 u
b1001100000001000000000000001110 A#
b1001100000001000000000000001110 E#
1e"
1A"
b11 B"
b11 R"
0a#
09"
b0 .$
b10 O"
b10 _"
b10 a"
b0 C"
b0 `"
b0 *$
b10 %$
1F"
b1001100000000100000000000010001 v
b1001100000000100000000000010001 C#
b1100 o
b1100 Y#
b1100 ~#
b1100 i
b1100 W#
b1100 r#
b1100 z
b1100 p#
b1100 x#
b1100 n
b1100 k"
b1100 m"
b1100 P#
b1100 s#
b1000 ,"
b1000 l"
b1000 D#
b1000 !$
b10111000 4#
b10001000 y
b10001000 n"
b10001000 t#
b1111100 }
b1111100 o"
b1111100 ?$
b11111 6"
b11111 f"
b11111 7#
b11111 )$
b11111 @$
b11111 7"
b11111 S"
b11111 :#
b1 ="
b1 .#
b1 _#
b1000 $$
10
#30000
b1100 7
b1001100000001000000000000001110 6
b10 ;
b100000 >
00
#35000
b1110 f
b1110 9$
b10000 :$
b1110 j
b1110 5#
b1110 6$
b10000 7$
b100000000000000111000 n#
13"
b10001 w
b10001 +$
b10001 M$
b10001 {
b10001 H$
b10001 I$
b10001 |
b10001 K$
b10001 P$
b10001 M"
b10001 ##
b10001 V#
b10001 -$
b10001 N"
b10001 d"
b10001 ($
b101001100001100000011111 u
b101001100001100000011111 A#
b101001100001100000011111 E#
b100 ,#
b1110 8#
b1110 8$
b1110 5$
b100 )"
b100 }#
b100 3$
b100 y#
b100000000000000111000 s
b100000000000000111000 C$
b1000000000000001110 D$
b10 '$
b11111 E"
b11111 q"
b11111 %#
b11111 G#
b10 ~
b10 m#
b10 !"
b10 h#
b10 i#
b10 ""
b10 )#
b10 c#
b10 d#
b10 ="
b10 .#
b10 _#
b10001 7"
b10001 S"
b10001 :#
b1000100 }
b1000100 o"
b1000100 ?$
b10001 m
b10001 b"
b10001 i"
b10001 F$
b10001 N$
b10001 6"
b10001 f"
b10001 7#
b10001 )$
b10001 @$
b1 D"
b1 +#
b1 J#
b1010100 y
b1010100 n"
b1010100 t#
b10000 o
b10000 Y#
b10000 ~#
b10000 i
b10000 W#
b10000 r#
b10000 z
b10000 p#
b10000 x#
b10000 n
b10000 k"
b10000 m"
b10000 P#
b10000 s#
b1100 ,"
b1100 l"
b1100 D#
b1100 !$
b1001100000001000000000000001110 v
b1001100000001000000000000001110 C#
10
#40000
b10000 7
b101001100001100000011111 6
b11 ;
b100000 >
00
