lab3/testbench.vcd
$date
	Fri Aug 04 19:33:21 2023
$end
$version
	Icarus Verilog
$end
$timescale
	1ps
$end
$scope module Testbench $end
$var parameter 6 ! FUNC_ADD $end
$var parameter 6 " FUNC_AND $end
$var parameter 6 # FUNC_JR $end
$var parameter 6 $ FUNC_NOR $end
$var parameter 6 % FUNC_OR $end
$var parameter 6 & FUNC_SLL $end
$var parameter 6 ' FUNC_SLLV $end
$var parameter 6 ( FUNC_SLT $end
$var parameter 6 ) FUNC_SRL $end
$var parameter 6 * FUNC_SRLV $end
$var parameter 6 + FUNC_SUB $end
$var parameter 6 , OP_ADDI $end
$var parameter 6 - OP_BEQ $end
$var parameter 6 . OP_BGEZ $end
$var parameter 6 / OP_BLT $end
$var parameter 6 0 OP_BNE $end
$var parameter 6 1 OP_BNEZ $end
$var parameter 6 2 OP_JAL $end
$var parameter 6 3 OP_JUMP $end
$var parameter 6 4 OP_LW $end
$var parameter 6 5 OP_R_TYPE $end
$var parameter 6 6 OP_SW $end
$var reg 1 7 CLK $end
$var reg 1 8 RST $end
$var reg 32 9 addr [31:0] $end
$var reg 32 : data [31:0] $end
$var reg 80 ; instr_name [79:0] $end
$var reg 32 < instruction [31:0] $end
$var reg 32 = pc [31:0] $end
$var reg 5 > rd [4:0] $end
$var reg 5 ? rs [4:0] $end
$var reg 5 @ rt [4:0] $end
$var integer 32 A count [31:0] $end
$var integer 32 B error [31:0] $end
$var integer 32 C i [31:0] $end
$var integer 32 D mem_error [31:0] $end
$var integer 32 E reg_error [31:0] $end
$var integer 32 F score [31:0] $end
$var integer 32 G testing [31:0] $end
$var integer 32 H total_score [31:0] $end
$var integer 32 I wa [31:0] $end
$scope begin gen_alu[0] $end
$var parameter 2 J j $end
$upscope $end
$scope begin gen_alu[1] $end
$var parameter 2 K j $end
$upscope $end
$scope begin gen_alu[2] $end
$var parameter 3 L j $end
$upscope $end
$scope begin gen_alu[3] $end
$var parameter 3 M j $end
$upscope $end
$scope begin gen_alu[4] $end
$var parameter 4 N j $end
$upscope $end
$scope begin gen_alu[5] $end
$var parameter 4 O j $end
$upscope $end
$scope begin gen_alu[6] $end
$var parameter 4 P j $end
$upscope $end
$scope begin gen_alu[7] $end
$var parameter 4 Q j $end
$upscope $end
$scope begin gen_alu[8] $end
$var parameter 5 R j $end
$upscope $end
$scope begin gen_alu[9] $end
$var parameter 5 S j $end
$upscope $end
$scope begin gen_alu[10] $end
$var parameter 5 T j $end
$upscope $end
$scope begin gen_alu[11] $end
$var parameter 5 U j $end
$upscope $end
$scope begin gen_alu[12] $end
$var parameter 5 V j $end
$upscope $end
$scope begin gen_alu[13] $end
$var parameter 5 W j $end
$upscope $end
$scope begin gen_alu[14] $end
$var parameter 5 X j $end
$upscope $end
$scope begin gen_alu[15] $end
$var parameter 5 Y j $end
$upscope $end
$scope begin gen_alu[16] $end
$var parameter 6 Z j $end
$upscope $end
$scope begin gen_alu[17] $end
$var parameter 6 [ j $end
$upscope $end
$scope begin gen_alu[18] $end
$var parameter 6 \ j $end
$upscope $end
$scope begin gen_alu[19] $end
$var parameter 6 ] j $end
$upscope $end
$scope begin gen_alu[20] $end
$var parameter 6 ^ j $end
$upscope $end
$scope begin gen_alu[21] $end
$var parameter 6 _ j $end
$upscope $end
$scope begin gen_alu[22] $end
$var parameter 6 ` j $end
$upscope $end
$scope begin gen_alu[23] $end
$var parameter 6 a j $end
$upscope $end
$scope begin gen_alu[24] $end
$var parameter 6 b j $end
$upscope $end
$scope begin gen_alu[25] $end
$var parameter 6 c j $end
$upscope $end
$scope begin gen_alu[26] $end
$var parameter 6 d j $end
$upscope $end
$scope begin gen_alu[27] $end
$var parameter 6 e j $end
$upscope $end
$scope begin gen_alu[28] $end
$var parameter 6 f j $end
$upscope $end
$scope begin gen_alu[29] $end
$var parameter 6 g j $end
$upscope $end
$scope begin gen_alu[30] $end
$var parameter 6 h j $end
$upscope $end
$scope begin gen_alu[31] $end
$var parameter 6 i j $end
$upscope $end
$scope module cpu $end
$var wire 1 7 clk_i $end
$var wire 1 8 rst_n $end
$var wire 32 j zeroFilled [31:0] $end
$var wire 1 k zero $end
$var wire 32 l writeData [31:0] $end
$var wire 32 m temperAddress [31:0] $end
$var wire 32 n signAlreadyExtend [31:0] $end
$var wire 1 o shifhterSource $end
$var wire 1 p rt $end
$var wire 32 q readData2 [31:0] $end
$var wire 32 r pc_counter_o [31:0] $end
$var wire 32 s pc_counter_i [31:0] $end
$var wire 1 t overflow $end
$var wire 32 u outputData [31:0] $end
$var wire 1 v leftRight $end
$var wire 32 w jumpShift [31:0] $end
$var wire 1 x jal $end
$var wire 32 y instruction [31:0] $end
$var wire 32 z finalShift [31:0] $end
$var wire 1 { equalOrNotEqual $end
$var wire 32 | branchTarget [31:0] $end
$var wire 32 } branchAddress [31:0] $end
$var wire 32 ~ alreadyShift2 [31:0] $end
$var wire 32 !" alreadyShift [31:0] $end
$var wire 32 "" addressShift [31:0] $end
$var wire 5 #" WriteRegister3 [4:0] $end
$var wire 5 $" WriteRegister2 [4:0] $end
$var wire 5 %" WriteRegister [4:0] $end
$var wire 32 &" WriteData2 [31:0] $end
$var wire 1 '" RestoreLink $end
$var wire 1 (" RegWrite $end
$var wire 1 )" RegDst $end
$var wire 1 *" RTsource $end
$var wire 32 +" RTdata [31:0] $end
$var wire 5 ," RTaddress [4:0] $end
$var wire 32 -" RSdata [31:0] $end
$var wire 1 ." PC_source $end
$var wire 32 /" PC_address [31:0] $end
$var wire 1 0" MemtoReg $end
$var wire 1 1" MemWrite $end
$var wire 1 2" MemRead $end
$var wire 1 3" Jump $end
$var wire 2 4" FURslt [1:0] $end
$var wire 1 5" BranchType $end
$var wire 1 6" Branch $end
$var wire 32 7" Address [31:0] $end
$var wire 32 8" ALU_Result [31:0] $end
$var wire 4 9" ALU_Operation [3:0] $end
$var wire 1 :" ALUSrc $end
$var wire 3 ;" ALUOp [2:0] $end
$scope module AC $end
$var wire 6 <" funct_i [5:0] $end
$var wire 3 =" ALUOp_i [2:0] $end
$var parameter 6 >" ADD $end
$var parameter 6 ?" AND $end
$var parameter 6 @" JR $end
$var parameter 6 A" NOR $end
$var parameter 6 B" OR $end
$var parameter 6 C" SLL $end
$var parameter 6 D" SLLV $end
$var parameter 6 E" SLT $end
$var parameter 6 F" SRL $end
$var parameter 6 G" SRLV $end
$var parameter 6 H" SUB $end
$var reg 4 I" ALU_operation_o [3:0] $end
$var reg 2 J" FURslt_o [1:0] $end
$var reg 1 ." PC_source_o $end
$var reg 1 v leftRight_o $end
$var reg 1 o shifhterSource_o $end
$upscope $end
$scope module ALU $end
$var wire 4 K" ALU_operation_i [3:0] $end
$var wire 1 t overflow $end
$var wire 1 k zero $end
$var wire 32 L" aluSrc2 [31:0] $end
$var wire 32 M" aluSrc1 [31:0] $end
$var reg 32 N" result [31:0] $end
$upscope $end
$scope module ALU_Src $end
$var wire 1 O" temp $end
$var wire 1 :" select_i $end
$var wire 32 P" data1_i [31:0] $end
$var wire 32 Q" data0_i [31:0] $end
$var parameter 32 R" size $end
$var reg 32 S" data_o [31:0] $end
$upscope $end
$scope module Adder1 $end
$var wire 32 T" src2_i [31:0] $end
$var wire 32 U" sum_o [31:0] $end
$var wire 32 V" src1_i [31:0] $end
$upscope $end
$scope module Adder2 $end
$var wire 32 W" src1_i [31:0] $end
$var wire 32 X" sum_o [31:0] $end
$var wire 32 Y" src2_i [31:0] $end
$upscope $end
$scope module DM $end
$var wire 1 7 clk_i $end
$var wire 32 Z" data_i [31:0] $end
$var wire 32 [" addr_i [31:0] $end
$var wire 1 1" MemWrite_i $end
$var wire 1 2" MemRead_i $end
$var reg 32 \" data_o [31:0] $end
$var integer 32 ]" i [31:0] $end
$upscope $end
$scope module Decoder $end
$var wire 6 ^" instr_op_i [5:0] $end
$var parameter 6 _" RType $end
$var parameter 6 `" addi $end
$var parameter 6 a" beq $end
$var parameter 6 b" bgez $end
$var parameter 6 c" blt $end
$var parameter 6 d" bne $end
$var parameter 6 e" bnez $end
$var parameter 6 f" jal $end
$var parameter 6 g" jump $end
$var parameter 6 h" lw $end
$var parameter 6 i" sw $end
$var reg 3 j" ALUOp_o [2:0] $end
$var reg 1 :" ALUSrc_o $end
$var reg 1 5" BranchType_o $end
$var reg 1 6" Branch_o $end
$var reg 1 3" Jump_o $end
$var reg 1 2" MemRead_o $end
$var reg 1 1" MemWrite_o $end
$var reg 1 0" MemtoReg_o $end
$var reg 1 *" RTsource_o $end
$var reg 1 )" RegDst_o $end
$var reg 1 (" RegWrite_o $end
$var reg 1 '" RestoreLink_o $end
$var reg 1 x jal_o $end
$var reg 1 p rt_o $end
$upscope $end
$scope module IM $end
$var wire 32 k" pc_addr_i [31:0] $end
$var reg 32 l" instr_o [31:0] $end
$var integer 32 m" i [31:0] $end
$upscope $end
$scope module Mux_JALWriteData $end
$var wire 32 n" data1_i [31:0] $end
$var wire 1 '" select_i $end
$var wire 1 o" temp $end
$var wire 32 p" data0_i [31:0] $end
$var parameter 32 q" size $end
$var reg 32 r" data_o [31:0] $end
$upscope $end
$scope module Mux_JRaddress $end
$var wire 1 ." select_i $end
$var wire 1 s" temp $end
$var wire 32 t" data1_i [31:0] $end
$var wire 32 u" data0_i [31:0] $end
$var parameter 32 v" size $end
$var reg 32 w" data_o [31:0] $end
$upscope $end
$scope module Mux_Write $end
$var wire 32 x" data1_i [31:0] $end
$var wire 1 0" select_i $end
$var wire 1 y" temp $end
$var wire 32 z" data0_i [31:0] $end
$var parameter 32 {" size $end
$var reg 32 |" data_o [31:0] $end
$upscope $end
$scope module Mux_Write_Reg $end
$var wire 5 }" data0_i [4:0] $end
$var wire 5 ~" data1_i [4:0] $end
$var wire 1 )" select_i $end
$var wire 1 !# temp $end
$var parameter 32 "# size $end
$var reg 5 ## data_o [4:0] $end
$upscope $end
$scope module Mux_Write_RegJAL $end
$var wire 5 $# data0_i [4:0] $end
$var wire 5 %# data1_i [4:0] $end
$var wire 1 '" select_i $end
$var wire 1 &# temp $end
$var parameter 32 '# size $end
$var reg 5 (# data_o [4:0] $end
$upscope $end
$scope module Mux_Write_RegJR $end
$var wire 5 )# data0_i [4:0] $end
$var wire 5 *# data1_i [4:0] $end
$var wire 1 ." select_i $end
$var wire 1 +# temp $end
$var parameter 32 ,# size $end
$var reg 5 -# data_o [4:0] $end
$upscope $end
$scope module Mux_address $end
$var wire 32 .# data1_i [31:0] $end
$var wire 1 3" select_i $end
$var wire 1 /# temp $end
$var wire 32 0# data0_i [31:0] $end
$var parameter 32 1# size $end
$var reg 32 2# data_o [31:0] $end
$upscope $end
$scope module Mux_branch $end
$var wire 32 3# data0_i [31:0] $end
$var wire 32 4# data1_i [31:0] $end
$var wire 1 5# select_i $end
$var wire 1 6# temp $end
$var parameter 32 7# size $end
$var reg 32 8# data_o [31:0] $end
$upscope $end
$scope module Mux_read_RT $end
$var wire 5 9# data0_i [4:0] $end
$var wire 5 :# data1_i [4:0] $end
$var wire 1 *" select_i $end
$var wire 1 ;# temp $end
$var parameter 32 <# size $end
$var reg 5 =# data_o [4:0] $end
$upscope $end
$scope module PC $end
$var wire 1 7 clk_i $end
$var wire 32 ># pc_in_i [31:0] $end
$var wire 1 8 rst_n $end
$var reg 32 ?# pc_out_o [31:0] $end
$upscope $end
$scope module RDdata_Source $end
$var wire 32 @# data0_i [31:0] $end
$var wire 2 A# select_i [1:0] $end
$var wire 32 B# data2_i [31:0] $end
$var wire 32 C# data1_i [31:0] $end
$var parameter 32 D# size $end
$var reg 32 E# data_o [31:0] $end
$var integer 32 F# select [31:0] $end
$upscope $end
$scope module RF $end
$var wire 5 G# RDaddr_i [4:0] $end
$var wire 32 H# RDdata_i [31:0] $end
$var wire 5 I# RSaddr_i [4:0] $end
$var wire 32 J# RSdata_o [31:0] $end
$var wire 5 K# RTaddr_i [4:0] $end
$var wire 32 L# RTdata_o [31:0] $end
$var wire 1 (" RegWrite_i $end
$var wire 1 7 clk_i $end
$var wire 1 8 rst_n $end
$upscope $end
$scope module SE $end
$var wire 16 M# data_i [15:0] $end
$var reg 32 N# data_o [31:0] $end
$var integer 32 O# i [31:0] $end
$upscope $end
$scope module ZF $end
$var wire 16 P# data_i [15:0] $end
$var reg 32 Q# data_o [31:0] $end
$var integer 32 R# i [31:0] $end
$upscope $end
$scope module branch $end
$var wire 1 k data0_i $end
$var wire 1 S# data1_i $end
$var wire 1 5" select_i $end
$var wire 1 T# temp $end
$var parameter 32 U# size $end
$var reg 1 { data_o $end
$upscope $end
$scope module branchShifter $end
$var wire 1 V# leftRight $end
$var wire 32 W# result [31:0] $end
$var wire 32 X# sftSrc [31:0] $end
$var wire 5 Y# shamt [4:0] $end
$upscope $end
$scope module jumpShifter $end
$var wire 1 Z# leftRight $end
$var wire 32 [# result [31:0] $end
$var wire 32 \# sftSrc [31:0] $end
$var wire 5 ]# shamt [4:0] $end
$upscope $end
$scope module rdShift $end
$var wire 1 v leftRight $end
$var wire 32 ^# sftSrc [31:0] $end
$var wire 5 _# shamt [4:0] $end
$var wire 32 `# result [31:0] $end
$upscope $end
$scope module shifhterSource $end
$var wire 32 a# data1_i [31:0] $end
$var wire 1 o select_i $end
$var wire 1 b# temp $end
$var wire 32 c# data0_i [31:0] $end
$var parameter 32 d# size $end
$var reg 32 e# data_o [31:0] $end
$upscope $end
$scope module shifter $end
$var wire 1 v leftRight $end
$var wire 32 f# sftSrc [31:0] $end
$var wire 5 g# shamt [4:0] $end
$var wire 32 h# result [31:0] $end
$upscope $end
$upscope $end
$upscope $end
$enddefinitions $end
$comment Show the parameter values. $end
$dumpall
b100000 d#
b1 U#
b100000 D#
b101 <#
b100000 7#
b100000 1#
b101 ,#
b101 '#
b101 "#
b100000 {"
b100000 v"
b100000 q"
b101000 i"
b11000 h"
b1100 g"
b1111 f"
b11101 e"
b11010 d"
b11100 c"
b11110 b"
b11001 a"
b10011 `"
b0 _"
b100000 R"
b10011 H"
b101000 G"
b100010 F"
b10100 E"
b11000 D"
b10010 C"
b101111 B"
b10000 A"
b1 @"
b11111 ?"
b100011 >"
b11111 i
b11110 h
b11101 g
b11100 f
b11011 e
b11010 d
b11001 c
b11000 b
b10111 a
b10110 `
b10101 _
b10100 ^
b10011 ]
b10010 \
b10001 [
b10000 Z
b1111 Y
b1110 X
b1101 W
b1100 V
b1011 U
b1010 T
b1001 S
b1000 R
b111 Q
b110 P
b101 O
b100 N
b11 M
b10 L
b1 K
b0 J
b101000 6
b0 5
b11000 4
b1100 3
b1111 2
b11101 1
b11010 0
b11100 /
b11110 .
b11001 -
b10011 ,
b10011 +
b101000 *
b100010 )
b10100 (
b11000 '
b10010 &
b101111 %
b10000 $
b1 #
b11111 "
b100011 !
$end
#0
$dumpvars
bx h#
bx g#
bx f#
bx e#
bx c#
xb#
bx a#
bx `#
bx _#
bx ^#
b10 ]#
b0xxxxxxxxxxxxxxxxxxxxxxxxxx \#
b0xxxxxxxxxxxxxxxxxxxxxxxxxx00 [#
0Z#
b10 Y#
bx X#
bx00 W#
0V#
xT#
xS#
bx R#
bx Q#
bx P#
bx O#
bx N#
bx M#
b0 L#
b0 K#
bx J#
bx I#
bx H#
bx G#
bx F#
bx E#
bx C#
bx B#
bx A#
bx @#
bx ?#
bx >#
b0 =#
x;#
b0 :#
bx 9#
bx 8#
x6#
x5#
bx 4#
bx 3#
bx00 2#
bx 0#
x/#
bx00 .#
bx -#
x+#
bx *#
b11111 )#
b11111 (#
x&#
b11111 %#
bx $#
bx ##
x!#
bx ~"
bx }"
bx |"
bx z"
xy"
bx x"
bx w"
bx00 u"
bx t"
xs"
bx r"
bx p"
xo"
bx n"
b100000 m"
bx l"
bx k"
bx j"
bx ^"
b10000000 ]"
bx \"
bx ["
b0 Z"
bx00 Y"
bx X"
bx W"
bx V"
bx U"
b100 T"
bx S"
b0 Q"
bx P"
xO"
bx N"
bx M"
bx L"
bx K"
bx J"
bx I"
bx ="
bx <"
bx ;"
x:"
bx 9"
bx 8"
bx 7"
x6"
x5"
bx 4"
x3"
x2"
x1"
x0"
bx /"
x."
bx -"
b0 ,"
b0 +"
x*"
x)"
x("
x'"
bx &"
bx %"
b11111 $"
bx #"
bx00 ""
bx !"
bx ~
bx }
bx |
x{
bx z
bx y
xx
b0xxxxxxxxxxxxxxxxxxxxxxxxxx00 w
xv
bx u
xt
bx s
bx r
bx q
xp
xo
bx n
bx00 m
bx l
xk
bx j
b0 I
b0 H
b1 G
b0 F
bx E
bx D
b10000000 C
bx B
b0 A
bx @
bx ?
bx >
bx =
b0 <
bx ;
bx :
bx 9
08
07
$end
#5000
1S#
0{
0k
0t
b11111 z
b11111 C#
b11111 e#
06#
05#
b11111 ~
b11111 `#
b11111 a#
b11111 !"
b11111 c#
b11111 h#
b11111 l
b11111 p"
b11111 |"
b11111 7"
b11111 ["
b11111 t"
b11111 z"
b11111 E#
b11111 8"
b11111 N"
b11111 @#
b0 F#
b1 ,"
b1 =#
b1 K#
b1 $"
b1 (#
b1 )#
b100 s
b100 w"
b100 >#
b11111 j
b11111 Q#
b10000 R#
b100 }
b100 0#
b100 8#
b10000000 |
b10000000 X"
b10000000 4#
b1111100 ""
b1111100 Y"
b1111100 W#
b11111 q
b11111 L"
b11111 S"
b11111 ^#
b11111 f#
b11111 n
b11111 P"
b11111 B#
b11111 N#
b11111 X#
b10000 O#
b10 9"
b10 I"
b10 K"
b0 4"
b0 J"
b0 A#
0s"
0+#
0."
1("
b11 ;"
b11 ="
b11 j"
1O"
1:"
0!#
0)"
0/#
03"
06"
0T#
05"
02"
01"
0y"
00"
0x
0p
0o"
0&#
0'"
0;#
0*"
b0 _#
b1 %"
b1 ##
b1 $#
b0 g#
b11111 P#
b11111 M#
b11111 <"
b10011 ^"
b0 -"
b0 M"
b0 J#
b0 I#
b1 9#
b1 #"
b1 -#
b1 G#
b0 *#
b0 ~"
b1 }"
b1000000000001111100 w
b1000000000001111100 [#
b10000000000011111 \#
b100 m
b100 u"
b100 2#
b1000000000001111100 .#
b11111 &"
b11111 r"
b11111 H#
b1001100000000010000000000011111 y
b1001100000000010000000000011111 l"
b100 r
b100 U"
b100 W"
b100 n"
b100 3#
b0 /"
b0 V"
b0 k"
b0 ?#
17
#10000
b0 D
b0 E
b0 B
b1 @
b0 ?
b1100001011001000110010001101001 ;
b1001100000000010000000000011111 <
b100 =
18
07
#15000
b0 !"
b0 c#
b0 h#
b0 z
b0 C#
b0 e#
b0 ~
b0 `#
b0 a#
b0 j
b0 Q#
b10000 R#
b0 ""
b0 Y"
b0 W#
b0 q
b0 L"
b0 S"
b0 ^#
b0 f#
b0 n
b0 P"
b0 B#
b0 N#
b0 X#
b10000 O#
b11111 _#
b11111 &"
b11111 r"
b11111 H#
b11111 l
b11111 p"
b11111 |"
b11111 7"
b11111 ["
b11111 t"
b11111 z"
b11111 E#
b11111 8"
b11111 N"
b11111 @#
b100000000000000000000000 .#
b0 P#
b0 M#
b0 <"
b11111 -"
b11111 M"
b11111 J#
b1 I#
b0 ,"
b0 =#
b0 K#
b0 9#
b1 *#
b0 #"
b0 -#
b0 G#
b0 $"
b0 (#
b0 )#
b0 %"
b0 ##
b0 $#
b0 }"
b100000000000000000000000 w
b100000000000000000000000 [#
b1000000000000000000000 \#
b1001100001000000000000000000000 y
b1001100001000000000000000000000 l"
b1000 |
b1000 X"
b1000 4#
b1000 s
b1000 w"
b1000 >#
b1000 m
b1000 u"
b1000 2#
b1000 }
b1000 0#
b1000 8#
b1000 r
b1000 U"
b1000 W"
b1000 n"
b1000 3#
b100 /"
b100 V"
b100 k"
b100 ?#
b0 +"
b0 Q"
b0 Z"
b0 L#
17
#20000
b0 @
b1 ?
b1000 =
b1001100001000000000000000000000 <
b1 A
b100000 C
07
#25000
b0 &"
b0 r"
b0 H#
b0 l
b0 p"
b0 |"
b0 7"
b0 ["
b0 t"
b0 z"
b0 E#
b1 F#
b11111 !"
b11111 c#
b11111 h#
b1000000101000 j
b1000000101000 Q#
b10000 R#
b100000010100000 ""
b100000010100000 Y"
b100000010100000 W#
b11111 q
b11111 L"
b11111 S"
b11111 ^#
b11111 f#
b1000000101000 n
b1000000101000 P"
b1000000101000 B#
b1000000101000 N#
b1000000101000 X#
b10000 O#
bx 9"
bx I"
bx K"
b1 4"
b1 J"
b1 A#
1v
1b#
1o
b10 ;"
b10 ="
b10 j"
0O"
0:"
1!#
1)"
b1000100000010100000 .#
b1000000101000 P#
b1000000101000 M#
b101000 <"
b0 ^"
b0 I#
b1 ,"
b1 =#
b1 K#
b1 9#
b0 *#
b10 ~"
b10 #"
b10 -#
b10 G#
b10 $"
b10 (#
b10 )#
b10 %"
b10 ##
b10 $#
b1 }"
b1000100000010100000 w
b1000100000010100000 [#
b10001000000101000 \#
b10001000000101000 y
b10001000000101000 l"
b100000010101100 |
b100000010101100 X"
b100000010101100 4#
b1100 s
b1100 w"
b1100 >#
b1100 m
b1100 u"
b1100 2#
b1100 }
b1100 0#
b1100 8#
b1100 r
b1100 U"
b1100 W"
b1100 n"
b1100 3#
b1000 /"
b1000 V"
b1000 k"
b1000 ?#
b11111 +"
b11111 Q"
b11111 Z"
b11111 L#
17
#30000
b1110011011100100110110001110110 ;
b10 >
b1 @
b0 ?
b1100 =
b10001000000101000 <
b10 A
b100000 C
07
#35000
b10000000000000000000000000000000 &"
b10000000000000000000000000000000 r"
b10000000000000000000000000000000 H#
b10000000000000000000000000000000 l
b10000000000000000000000000000000 p"
b10000000000000000000000000000000 |"
b10000000000000000000000000000000 7"
b10000000000000000000000000000000 ["
b10000000000000000000000000000000 t"
b10000000000000000000000000000000 z"
b10000000000000000000000000000000 E#
b10000000000000000000000000000000 z
b10000000000000000000000000000000 C#
b10000000000000000000000000000000 e#
b10000000000000000000000000000000 ~
b10000000000000000000000000000000 `#
b10000000000000000000000000000000 a#
b1000000011000 j
b1000000011000 Q#
b10000 R#
b100000001100000 ""
b100000001100000 Y"
b100000001100000 W#
b1000000011000 n
b1000000011000 P"
b1000000011000 B#
b1000000011000 N#
b1000000011000 X#
b10000 O#
0v
b1000100000001100000 .#
b1000000011000 P#
b1000000011000 M#
b11000 <"
b1000100000001100000 w
b1000100000001100000 [#
b10001000000011000 \#
b10001000000011000 y
b10001000000011000 l"
b100000001110000 |
b100000001110000 X"
b100000001110000 4#
b10000 s
b10000 w"
b10000 >#
b10000 m
b10000 u"
b10000 2#
b10000 }
b10000 0#
b10000 8#
b10000 r
b10000 U"
b10000 W"
b10000 n"
b10000 3#
b1100 /"
b1100 V"
b1100 k"
b1100 ?#
17
#40000
b1110011011011000110110001110110 ;
b10000 =
b10001000000011000 <
b11 A
b100000 C
07
#45000
b10000000000000000000000000011111 8"
b10000000000000000000000000011111 N"
b10000000000000000000000000011111 @#
b0 F#
b10100000010011 j
b10100000010011 Q#
b10000 R#
b1010000001001100 ""
b1010000001001100 Y"
b1010000001001100 W#
b10100000010011 n
b10100000010011 P"
b10100000010011 B#
b10100000010011 N#
b10100000010011 X#
b10000 O#
b110 9"
b110 I"
b110 K"
b0 4"
b0 J"
b0 A#
xv
xb#
xo
b10000000000000000000000000011111 &"
b10000000000000000000000000011111 r"
b10000000000000000000000000011111 H#
b10000000000000000000000000011111 l
b10000000000000000000000000011111 p"
b10000000000000000000000000011111 |"
b10000000000000000000000000011111 7"
b10000000000000000000000000011111 ["
b10000000000000000000000000011111 t"
b10000000000000000000000000011111 z"
b10000000000000000000000000011111 E#
b0x z
b0x C#
b0x e#
b0x ~
b0x `#
b0x a#
b10000000000000000000000000000000 !"
b10000000000000000000000000000000 c#
b10000000000000000000000000000000 h#
b100010001010000001001100 .#
b10100000010011 P#
b10100000010011 M#
b10011 <"
b1 I#
b10000000000000000000000000000000 q
b10000000000000000000000000000000 L"
b10000000000000000000000000000000 S"
b10000000000000000000000000000000 ^#
b10000000000000000000000000000000 f#
b10000000000000000000000000000000 +"
b10000000000000000000000000000000 Q"
b10000000000000000000000000000000 Z"
b10000000000000000000000000000000 L#
b10 ,"
b10 =#
b10 K#
b10 9#
b1 *#
b101 #"
b101 -#
b101 G#
b101 $"
b101 (#
b101 )#
b101 %"
b101 ##
b101 $#
b101 ~"
b10 }"
b100010001010000001001100 w
b100010001010000001001100 [#
b1000100010100000010011 \#
b1000100010100000010011 y
b1000100010100000010011 l"
b1010000001100000 |
b1010000001100000 X"
b1010000001100000 4#
b10100 s
b10100 w"
b10100 >#
b10100 m
b10100 u"
b10100 2#
b10100 }
b10100 0#
b10100 8#
b10100 r
b10100 U"
b10100 W"
b10100 n"
b10100 3#
b10000 /"
b10000 V"
b10000 k"
b10000 ?#
17
#50000
b11100110111010101100010 ;
b101 >
b10 @
b1 ?
b10100 =
b1000100010100000010011 <
b100 A
b100000 C
07
#55000
b10100000010000 j
b10100000010000 Q#
b10000 R#
b1010000001000000 ""
b1010000001000000 Y"
b1010000001000000 W#
b10100000010000 n
b10100000010000 P"
b10100000010000 B#
b10100000010000 N#
b10100000010000 X#
b10000 O#
b1100 9"
b1100 I"
b1100 K"
bx0000000000000000000000000000000 z
bx0000000000000000000000000000000 C#
bx0000000000000000000000000000000 e#
bx0000000000000000000000000000000 ~
bx0000000000000000000000000000000 `#
bx0000000000000000000000000000000 a#
b11111 !"
b11111 c#
b11111 h#
b1111111111111111111111111100000 &"
b1111111111111111111111111100000 r"
b1111111111111111111111111100000 H#
b1111111111111111111111111100000 l
b1111111111111111111111111100000 p"
b1111111111111111111111111100000 |"
b1111111111111111111111111100000 7"
b1111111111111111111111111100000 ["
b1111111111111111111111111100000 t"
b1111111111111111111111111100000 z"
b1111111111111111111111111100000 E#
b1111111111111111111111111100000 8"
b1111111111111111111111111100000 N"
b1111111111111111111111111100000 @#
b10100000001010000001000000 .#
b10100000010000 P#
b10100000010000 M#
b10000 <"
b10000000000000000000000000011111 -"
b10000000000000000000000000011111 M"
b10000000000000000000000000011111 J#
b101 I#
b11111 q
b11111 L"
b11111 S"
b11111 ^#
b11111 f#
b11111 +"
b11111 Q"
b11111 Z"
b11111 L#
b0 ,"
b0 =#
b0 K#
b0 9#
b101 *#
b0 }"
b10100000001010000001000000 w
b10100000001010000001000000 [#
b101000000010100000010000 \#
b101000000010100000010000 y
b101000000010100000010000 l"
b1010000001011000 |
b1010000001011000 X"
b1010000001011000 4#
b11000 s
b11000 w"
b11000 >#
b11000 m
b11000 u"
b11000 2#
b11000 }
b11000 0#
b11000 8#
b11000 r
b11000 U"
b11000 W"
b11000 n"
b11000 3#
b10100 /"
b10100 V"
b10100 k"
b10100 ?#
17
#60000
b11011100110111101110010 ;
b0 @
b101 ?
b11000 =
b101000000010100000010000 <
b101 A
b100000 C
07
#65000
b0xx F#
b0 j
b0 Q#
b10000 R#
b0 ""
b0 Y"
b0 W#
b0 n
b0 P"
b0 B#
b0 N#
b0 X#
b10000 O#
bx 9"
bx I"
bx K"
bx 4"
bx J"
bx A#
b0 .#
1t
b0 P#
b0 M#
b0 <"
b0 I#
b0 *#
b0 #"
b0 -#
b0 G#
b0 $"
b0 (#
b0 )#
b0 %"
b0 ##
b0 $#
b0 ~"
b0 w
b0 [#
b0 \#
bx0000000000000000000000000000000 z
bx0000000000000000000000000000000 C#
bx0000000000000000000000000000000 e#
bx0000000000000000000000000000000 ~
bx0000000000000000000000000000000 `#
bx0000000000000000000000000000000 a#
b0 y
b0 l"
b11111 _#
b0 &"
b0 r"
b0 H#
b0 l
b0 p"
b0 |"
b0 7"
b0 ["
b0 t"
b0 z"
b0 E#
b11111111111111111111111111100000 8"
b11111111111111111111111111100000 N"
b11111111111111111111111111100000 @#
b11100 |
b11100 X"
b11100 4#
b11100 s
b11100 w"
b11100 >#
b11100 m
b11100 u"
b11100 2#
b11100 }
b11100 0#
b11100 8#
b11100 r
b11100 U"
b11100 W"
b11100 n"
b11100 3#
b11000 /"
b11000 V"
b11000 k"
b11000 ?#
b11111 -"
b11111 M"
b11111 J#
17
#70000
b1001011000 A
b100000 C
07
#75000
b0 _#
b0 z
b0 C#
b0 e#
b0 ~
b0 `#
b0 a#
b0 !"
b0 c#
b0 h#
b100000 |
b100000 X"
b100000 4#
b100000 s
b100000 w"
b100000 >#
b100000 m
b100000 u"
b100000 2#
b100000 }
b100000 0#
b100000 8#
b100000 r
b100000 U"
b100000 W"
b100000 n"
b100000 3#
b11100 /"
b11100 V"
b11100 k"
b11100 ?#
b0 -"
b0 M"
b0 J#
b0 q
b0 L"
b0 S"
b0 ^#
b0 f#
b0 +"
b0 Q"
b0 Z"
b0 L#
17
#80000
07
#85000
b100100 |
b100100 X"
b100100 4#
b100100 s
b100100 w"
b100100 >#
b100100 m
b100100 u"
b100100 2#
b100100 }
b100100 0#
b100100 8#
b100100 r
b100100 U"
b100100 W"
b100100 n"
b100100 3#
b100000 /"
b100000 V"
b100000 k"
b100000 ?#
17
